INDEX VERSION 1.3+C:\Users\Supervisor\workspace\.metadata\.plugins\org.eclipse.wst.jsdt.core\indexes
1894604423.index
2205517613.index
3409340815.index
880341321.index
544920581.index
3155080938.index
